…
```
## # A tibble: 1 × 19
##   Sample_Num ACTN2 COL1A1 COL1A2 COL3A1 COL5A1 COL5A2 GATA4  MYH6  MYH7  MYL2
##   <chr>      <dbl>  <dbl>  <dbl>  <dbl>  <dbl>  <dbl> <dbl> <dbl> <dbl> <dbl>
## 1 Sample5        0   1.20   7.99   9.58   5.22   3.33  4.44     0  4.68  1.20
## # … with 8 more variables: MYL3 <dbl>, MYL4 <dbl>, MYL6 <dbl>, NOTCH1 <dbl>,
## #   NOTCH2 <dbl>, NPPA <dbl>, NPPB <dbl>, SIRT1 <dbl>
```

```r
six_weeks[,5]
```

```
## # A tibble: 48 × 1
##    COL3A1
##     <dbl>
##  1   8.33
##  2   9.11
##  3   8.12
##  4   8.89
##  5   9.58
##  6   4.29
##  7   8.32
##  8   3.93
##  9   2.77
## 10   7.95
## # … with 38 more rows
```

```r
six_weeks[,2]
```

```
## # A tibble: 48 × 1
##    ACTN2
##    <dbl>
##  1 0    
##  2 0    
##  3 0.642
##  4 0    
##  5 0    
##  6 4.20 
##  7 0    
##  8 5.69 
##  9 0    
## 10 0    
## # … with 38 more rows
```
…
## pivot


```r
# pivot longer
dat_long_6wks <- six_weeks %>%
    pivot_longer(-Sample_Num, names_to = "gene", values_to = '6')
dat_long_6wks
```

```
## # A tibble: 864 × 3
##    Sample_Num gene     `6`
##    <chr>      <chr>  <dbl>
##  1 Sample1    ACTN2  0    
##  2 Sample1    COL1A1 3.38 
##  3 Sample1    COL1A2 6.29 
##  4 Sample1    COL3A1 8.33 
##  5 Sample1    COL5A1 3.98 
##  6 Sample1    COL5A2 4.46 
##  7 Sample1    GATA4  4.64 
##  8 Sample1    MYH6   0    
##  9 Sample1    MYH7   3.42 
## 10 Sample1    MYL2   0.621
## # … with 854 more rows
```

```r
dat_long_24wks <- twenty_four_weeks %>%
    pivot_longer(-Sample_Num, names_to = "gene", values_to = '24')
dat_long_24wks
```

```
## # A tibble: 1,584 × 3
##    Sample_Num gene    `24`
##    <chr>      <chr>  <dbl>
##  1 Sample1    ACTN2   0   
##  2 Sample1    COL1A1  4.98
##  3 Sample1    COL1A2  5.42
##  4 Sample1    COL3A1  4.33
##  5 Sample1    COL5A1  0   
##  6 Sample1    COL5A2  0   
##  7 Sample1    GATA4   0   
##  8 Sample1    MYH6    0   
##  9 Sample1    MYH7    4.98
## 10 Sample1    MYL2    6.20
## # … with 1,574 more rows
```
…
<img src="https://github.com/BIGslu/2022_ASM_Microbe_RNAseq/blob/main/2_tidyverse/images/r-data-analysis/join-inner.png?raw=true" width="400"/>

Let's use a full join on our dataset:


```r
# join
dat_joined <- full_join(dat_long_6wks, dat_long_24wks, by = c('Sample_Num', 'gene'))
dat_joined
```

```
## # A tibble: 1,584 × 4
##    Sample_Num gene     `6`  `24`
##    <chr>      <chr>  <dbl> <dbl>
##  1 Sample1    ACTN2  0      0   
##  2 Sample1    COL1A1 3.38   4.98
##  3 Sample1    COL1A2 6.29   5.42
##  4 Sample1    COL3A1 8.33   4.33
##  5 Sample1    COL5A1 3.98   0   
##  6 Sample1    COL5A2 4.46   0   
##  7 Sample1    GATA4  4.64   0   
##  8 Sample1    MYH6   0      0   
##  9 Sample1    MYH7   3.42   4.98
## 10 Sample1    MYL2   0.621  6.20
## # … with 1,574 more rows
```

This is looking pretty tidy. But still, it could be tidier! 
Let's use pivot longer again so we'll have a column for the number of weeks.


```r
# pivot longer again
dat_joined_long <- dat_joined %>% pivot_longer(c('6', '24'),
                                               names_to = 'weeks',
                                               values_to = 'log2_expr')
dat_joined_long
```

```
## # A tibble: 3,168 × 4
##    Sample_Num gene   weeks log2_expr
##    <chr>      <chr>  <chr>     <dbl>
##  1 Sample1    ACTN2  6          0   
##  2 Sample1    ACTN2  24         0   
##  3 Sample1    COL1A1 6          3.38
##  4 Sample1    COL1A1 24         4.98
##  5 Sample1    COL1A2 6          6.29
##  6 Sample1    COL1A2 24         5.42
##  7 Sample1    COL3A1 6          8.33
##  8 Sample1    COL3A1 24         4.33
##  9 Sample1    COL5A1 6          3.98
## 10 Sample1    COL5A1 24         0   
## # … with 3,158 more rows
```
…
## Your first boxplot

Now we're ready to make our first plot!

First, let's try just plotting the ACTN2 gene. We'll use `filter()` to get rows for this gene only:


```r
dat_joined_long %>%
    filter(gene == 'ACTN2')
```

```
## # A tibble: 176 × 4
##    Sample_Num gene  weeks log2_expr
##    <chr>      <chr> <chr>     <dbl>
##  1 Sample1    ACTN2 6         0    
##  2 Sample1    ACTN2 24        0    
##  3 Sample2    ACTN2 6         0    
##  4 Sample2    ACTN2 24        0    
##  5 Sample3    ACTN2 6         0.642
##  6 Sample3    ACTN2 24        3.68 
##  7 Sample4    ACTN2 6         0    
##  8 Sample4    ACTN2 24        0    
##  9 Sample5    ACTN2 6         0    
## 10 Sample5    ACTN2 24        6.19 
## # … with 166 more rows
```
…
